{
    "articles": [
        {
            "name_article": "Ep\u00e9e",
            "type": "Arme",
            "meshes": "_Projects\/Teste\/meshes\/props\/Coffre.babylon",
            "attach_bone": "",
            "position": "0,0,0",
            "rotation": "0,0,0",
            "echelle": "0.009,0.009,0.009",
            "particles": "",
            "particles_position": "0,0,0",
            "material": "",
            "material_position": "0,0,0",
            "material_echelle": "0,0,0",
            "lumiere": "",
            "lumiere_intensity": "1.0",
            "lumiere_position": "0,0,0",
            "lumiere_colorDiffuse": "",
            "lumiere_colorSpecular": "",
            "lumiere_rayon": "20",
            "used_actors": [
                {
                    "actor_name": "race.classe"
                }
            ]
        }
    ]
}