{
    "factions": {
        "Humain": {
            "Humain": "0",
            "Monstre": "Enemy"
        },
        "Monstre": {
            "Humain": "Enemy",
            "Monstre": "0"
        }
    }
}