[
    {
        "id": "parent_node_meshes",
        "text": "meshes",
        "children": [
            {
                "id": "child_node_actors",
                "text": "actors"
            },
            {
                "id": "child_node_arms",
                "text": "arms"
            },
            {
                "id": "child_node_architectures",
                "text": "architectures"
            },
            {
                "id": "child_node_props",
                "text": "props"
            }
        ]
    },	
    {
        "id": "parent_node_textures",
        "text": "textures",
        "children": [
			 {
                "id": "child_node_Grass",
                "text": "Grass"
            },
            {
                "id": "child_node_Materials",
                "text": "Materials"
            },
            {
                "id": "child_node_skybox",
                "text": "skybox"
            },
            {
                "id": "child_node_Suns_Moons",
                "text": "Suns_Moons"
            },
            {
                "id": "child_node_terrain",
                "text": "terrain"
            }
        ]
    },
    {
        "id": "parent_node_images",
        "text": "images",
        "children": [
			{
                "id": "child_node_Flares",
                "text": "Flares"
            }			
        ]
    },
    {
        "id": "parent_node_musics",
        "text": "musics",
        "children": [

        ]
    },
    {
        "id": "parent_node_sounds",
        "text": "sounds",
        "children": [

        ]
    },
    {
        "id": "parent_node_videos",
        "text": "videos",
        "children": [

        ]
    }
]